Repeated measures and factorial ANOVA
…
.pull-left[

.large[
This time, it's the same participants in each condition. There's still one row per observation, but now there are three rows per participant - one for each observation in each of the three conditions.
]
]
.pull-right[

```r
arrange(noise_test_within, participant)
```

```
## # A tibble: 150 x 3
##    noise test_score participant
##    <chr>      <dbl>       <int>
##  1 none        7.68           1
##  2 quiet       9.06           1
##  3 loud        7.01           1
##  4 none        7.78           2
##  5 quiet       9.82           2
##  6 loud        6.26           2
##  7 none        8.46           3
##  8 quiet      10.7            3
##  9 loud        7.31           3
## 10 none        7.12           4
## # ... with 140 more rows
```
…
So she runs the study again, with the same three noise conditions, but now splits the participants into two more conditions. Half of the participants take an easy test; the other half take a hard test.
]
]
.pull-right[

```r
noise_test_mixed
```

```
## # A tibble: 300 x 4
##    noise difficulty test_score participant
##    <chr> <chr>           <dbl>       <int>
##  1 none  hard           11.9             1
##  2 none  hard            6.26            2
##  3 none  hard            0.774           3
##  4 none  hard            7.69            4
##  5 none  hard            6.27            5
##  6 none  hard            3.13            6
##  7 none  hard            4.82            7
##  8 none  hard            6.60            8
##  9 none  hard            6.93            9
## 10 none  hard            4.71           10
## # ... with 290 more rows
```
…
---
# The structure of the data

.pull-left[
Since each participant takes part in all three noise conditions, there are three rows per participant.

```r
noise_test_mixed %>%
  arrange(participant)
```

```
## # A tibble: 300 x 4
##    noise difficulty test_score participant
##    <chr> <chr>           <dbl>       <int>
##  1 none  hard           11.9             1
##  2 quiet hard            7.27            1
##  3 loud  hard            7.53            1
##  4 none  hard            6.26            2
##  5 quiet hard            4.44            2
##  6 loud  hard            5.16            2
##  7 none  hard            0.774           3
##  8 quiet hard            3.55            3
##  9 loud  hard            1.23            3
## 10 none  hard            7.69            4
## # ... with 290 more rows
```
…
