Visualizing data
…
---
# Getting a quick look at your data

Plotting helps you quickly gain an understanding of the structure of your data.

Here's some recent data about the UK's prison population.

```
## # A tibble: 22,409 x 6
##    View           Date   Establishment Sex    `Age / Custody / National~ Population
##    <chr>          <chr>  <chr>         <chr>  <chr>                           <dbl>
##  1 a Establishme~ 2015-~ Altcourse     Male   Adults (21+)                      922
##  2 a Establishme~ 2015-~ Altcourse     Male   Juveniles and Young Adult~        169
##  3 a Establishme~ 2015-~ Ashfield      Male   Adults (21+)                      389
##  4 a Establishme~ 2015-~ Askham Grange Female Adults (21+)                       NA
##  5 a Establishme~ 2015-~ Askham Grange Female Juveniles and Young Adult~         NA
##  6 a Establishme~ 2015-~ Aylesbury     Male   Adults (21+)                      113
##  7 a Establishme~ 2015-~ Aylesbury     Male   Juveniles and Young Adult~        268
##  8 a Establishme~ 2015-~ Bedford       Male   Adults (21+)                      459
##  9 a Establishme~ 2015-~ Bedford       Male   Juveniles and Young Adult~         30
## 10 a Establishme~ 2015-~ Belmarsh      Male   Adults (21+)                      794
## # ... with 22,399 more rows
```
…
---
background-image: url(images/04/ggplot2-logo.png)
background-size: 8%
background-position: 85% 5%
# The mpg dataset

```r
mpg
```

```
## # A tibble: 234 x 11
##    manufacturer model      displ  year   cyl trans    drv     cty   hwy fl    class
##    <chr>        <chr>      <dbl> <int> <int> <chr>    <chr> <int> <int> <chr> <chr>
##  1 audi         a4           1.8  1999     4 auto(l5) f        18    29 p     comp~
##  2 audi         a4           1.8  1999     4 manual(~ f        21    29 p     comp~
##  3 audi         a4           2    2008     4 manual(~ f        20    31 p     comp~
##  4 audi         a4           2    2008     4 auto(av) f        21    30 p     comp~
##  5 audi         a4           2.8  1999     6 auto(l5) f        16    26 p     comp~
##  6 audi         a4           2.8  1999     6 manual(~ f        18    26 p     comp~
##  7 audi         a4           3.1  2008     6 auto(av) f        18    27 p     comp~
##  8 audi         a4 quattro   1.8  1999     4 manual(~ 4        18    26 p     comp~
##  9 audi         a4 quattro   1.8  1999     4 auto(l5) 4        16    25 p     comp~
## 10 audi         a4 quattro   2    2008     4 manual(~ 4        20    28 p     comp~
## # ... with 224 more rows
```
…
