Multiple predictors and multiple means
…
---
# How the data is structured

.pull-left[

```r
noise_test
```

```
## # A tibble: 150 x 3
##    noise test_score participant
##    <chr>      <dbl>       <int>
##  1 none        5.93           1
##  2 none        8.39           2
##  3 none        7.95           3
##  4 none        7.09           4
##  5 none        9.76           5
##  6 none        7.80           6
##  7 none        6.73           7
##  8 none        7.41           8
##  9 none        9.05           9
## 10 none       10.3           10
## # ... with 140 more rows
```
…
