The structure of data
…
---
# Fear of Crime Dataset

Ellis & Renouf (2018) collected data online using Qualtrics.

The file contains one column for each question that the participants answered, for a total of 169(!) columns.

Each row is a single participant's answers, and their demographic information.

```r
FearofCrime
```

```
## # A tibble: 301 x 169
##    ResponseID        ResponseSet Name  ExternalDataRef~ Status StartDate EndDate
##    <chr>             <chr>       <chr> <lgl>             <dbl> <chr>     <chr>  
##  1 R_ai4tgG1GHNdVdqt Default Re~ Anon~ NA                    0 19/10/14~ 19/10/~
##  2 R_d5OiATV0IJiBbMx Default Re~ Anon~ NA                    0 20/10/14~ 20/10/~
##  3 R_aaBVZUe9mlGiDpH Default Re~ Anon~ NA                    0 20/10/14~ 20/10/~
##  4 R_6nxInLKQv2bucQZ Default Re~ Anon~ NA                    0 20/10/14~ 20/10/~
##  5 R_6SCYbhOP9BG5CgR Default Re~ Anon~ NA                    0 20/10/14~ 20/10/~
##  6 R_5pCxWA6qOQdnVyd Default Re~ Anon~ NA                    0 20/10/14~ 20/10/~
##  7 R_d1nji6V7FCppn0x Default Re~ Anon~ NA                    0 20/10/14~ 20/10/~
##  8 R_9v6ZgUhKflVX6yp Default Re~ Anon~ NA                    0 20/10/14~ 20/10/~
##  9 R_5Bg7VjBhOZja2gt Default Re~ Anon~ NA                    0 20/10/14~ 20/10/~
## 10 R_9Sv17lQGWXwo23z Default Re~ Anon~ NA                    0 20/10/14~ 20/10/~
## # ... with 291 more rows, and 162 more variables: Finished <dbl>, ...
```
…
2. It needs to tie each value to the right participant.

3. It needs to identify what each value represents in terms of the design.
]

---
class: inverse, center, middle
# The many ways to structure data

---
# One column for condition, one column for RT
.pull-left[

```
## # A tibble: 40 x 3
## # Groups:   Participant [10]
##    Participant exp_condition       RT
##          <int> <chr>            <dbl>
##  1           1 Block1_different  407.
##  2           1 Block1_same       415.
##  3           1 Block2_different  382.
##  4           1 Block2_same       371.
##  5           2 Block1_different  420.
##  6           2 Block1_same       384.
##  7           2 Block2_different  479.
##  8           2 Block2_same       402.
##  9           3 Block1_different  368.
## 10           3 Block1_same       341.
## # ... with 30 more rows
```
…
