Importing, transforming, and summarising your data
…
Ellis & Renouf (2018) collected data online using Qualtrics.

The file contains one column for each question that the participants answered, for a total of 169(!) columns.

Each row is a single participant's answers, and their demographic information.

```r
FearofCrime
```

```
## # A tibble: 301 x 169
##    ResponseID ResponseSet Name  ExternalDataRef~ Status StartDate EndDate Finished `Consent Form /~   sex   age
##    <chr>      <chr>       <chr> <lgl>             <dbl> <chr>     <chr>      <dbl>            <dbl> <dbl> <dbl>
##  1 R_ai4tgG1~ Default Re~ Anon~ NA                    0 19/10/14~ 19/10/~        1                1     2    26
##  2 R_d5OiATV~ Default Re~ Anon~ NA                    0 20/10/14~ 20/10/~        1                1     2    66
##  3 R_aaBVZUe~ Default Re~ Anon~ NA                    0 20/10/14~ 20/10/~        1                1     1    41
##  4 R_6nxInLK~ Default Re~ Anon~ NA                    0 20/10/14~ 20/10/~        1                1     1    46
##  5 R_6SCYbhO~ Default Re~ Anon~ NA                    0 20/10/14~ 20/10/~        1                1     2    53
##  6 R_5pCxWA6~ Default Re~ Anon~ NA                    0 20/10/14~ 20/10/~        1                1     1    33
##  7 R_d1nji6V~ Default Re~ Anon~ NA                    0 20/10/14~ 20/10/~        1                1     2    41
##  8 R_9v6ZgUh~ Default Re~ Anon~ NA                    0 20/10/14~ 20/10/~        1                1     1    39
##  9 R_5Bg7VjB~ Default Re~ Anon~ NA                    0 20/10/14~ 20/10/~        1                1     2    38
## 10 R_9Sv17lQ~ Default Re~ Anon~ NA                    0 20/10/14~ 20/10/~        1                1     2    19
## # ... with 291 more rows, and 158 more variables: hexaco1 <dbl>, hexaco2 <dbl>, hexaco3 <dbl>, hexaco4 <dbl>,
## #   hexaco5 <dbl>, hexaco6 <dbl>, hexaco7 <dbl>, hexaco8 <dbl>, hexaco9 <dbl>, hexaco10 <dbl>, hexaco11 <dbl>,
## #   hexaco12 <dbl>, hexaco13 <dbl>, hexaco14 <dbl>, hexaco15 <dbl>, hexaco16 <dbl>, hexaco17 <dbl>,
## #   hexaco18 <dbl>, hexaco19 <dbl>, hexaco20 <dbl>, hexaco21 <dbl>, hexaco22 <dbl>, hexaco23 <dbl>,
## #   hexaco24 <dbl>, hexaco25 <dbl>, hexaco26 <dbl>, hexaco27 <dbl>, hexaco28 <dbl>, hexaco29 <dbl>,
## #   hexaco30 <dbl>, hexaco31 <dbl>, hexaco32 <dbl>, hexaco33 <dbl>, hexaco34 <dbl>, hexaco35 <dbl>,
## #   hexaco36 <dbl>, hexaco37 <dbl>, hexaco38 <dbl>, hexaco39 <dbl>, hexaco40 <dbl>, hexaco41 <dbl>,
## #   hexaco42 <dbl>, hexaco43 <dbl>, hexaco44 <dbl>, hexaco45 <dbl>, hexaco46 <dbl>, hexaco47 <dbl>,
## #   hexaco48 <dbl>, hexaco49 <dbl>, hexaco50 <dbl>, hexaco51 <dbl>, hexaco52 <dbl>, hexaco53 <dbl>,
…
---
# Prison population

Once the data is imported, we have a *tibble*.

We can immediately see there are 6 columns with 22409 rows.

```r
prison_pop
```

```
## # A tibble: 22,409 x 6
##    View                       Date    Establishment Sex    `Age / Custody / Nationality / Offence G~ Population
##    <chr>                      <chr>   <chr>         <chr>  <chr>                                          <dbl>
##  1 a Establishment*Sex*Age G~ 2015-06 Altcourse     Male   Adults (21+)                                     922
##  2 a Establishment*Sex*Age G~ 2015-06 Altcourse     Male   Juveniles and Young Adults (15-20)               169
##  3 a Establishment*Sex*Age G~ 2015-06 Ashfield      Male   Adults (21+)                                     389
##  4 a Establishment*Sex*Age G~ 2015-06 Askham Grange Female Adults (21+)                                      NA
##  5 a Establishment*Sex*Age G~ 2015-06 Askham Grange Female Juveniles and Young Adults (15-20)                NA
##  6 a Establishment*Sex*Age G~ 2015-06 Aylesbury     Male   Adults (21+)                                     113
##  7 a Establishment*Sex*Age G~ 2015-06 Aylesbury     Male   Juveniles and Young Adults (15-20)               268
##  8 a Establishment*Sex*Age G~ 2015-06 Bedford       Male   Adults (21+)                                     459
##  9 a Establishment*Sex*Age G~ 2015-06 Bedford       Male   Juveniles and Young Adults (15-20)                30
## 10 a Establishment*Sex*Age G~ 2015-06 Belmarsh      Male   Adults (21+)                                     794
## # ... with 22,399 more rows
```
…
.pull-left[
.large[
We pass the name of the data frame that we want to select from, and the names of each column we want to keep after that.

Suppose that, first of all, we were only interested in the age and sex of our participants.
]
]
.pull-right[

```r
select(FearofCrime, age, sex)
```

```
## # A tibble: 301 x 2
##      age   sex
##    <dbl> <dbl>
##  1    26     2
##  2    66     2
##  3    41     1
##  4    46     1
##  5    53     2
##  6    33     1
##  7    41     2
##  8    39     1
##  9    38     2
## 10    19     2
## # ... with 291 more rows
```
…
Typing these out one by one would be ... *laborious*.

Fortunately, there are some shorthands.

The colon (*:*) operator can be used to say "everything between these columns (inclusive)".

```r
select(FearofCrime, hexaco1:hexaco5)
```

```
## # A tibble: 301 x 5
##    hexaco1 hexaco2 hexaco3 hexaco4 hexaco5
##      <dbl>   <dbl>   <dbl>   <dbl>   <dbl>
##  1       4       5       2       4       1
##  2       2       4       2       4       4
##  3       1       5       2       3       2
##  4       1       5       2       4       1
##  5       2       4       4       5       5
##  6       2       4       2       2       2
##  7       1       5       4       4       4
##  8       2       4       3       2       2
##  9       1       2       4       2       5
## 10       4       4       2       3       2
## # ... with 291 more rows
```
…
---
background-image: url(images/05/dplyr-logo.png)
background-size: 6%
background-position: 90% 5%

# Selecting columns

Here, I remove a few columns that don't contain any useful information.

```r
select(FearofCrime, -ResponseSet, -Name, -Status, -ExternalDataReference)
```

```
## # A tibble: 301 x 165
##    ResponseID StartDate EndDate Finished `Consent Form /~   sex   age hexaco1 hexaco2 hexaco3 hexaco4 hexaco5
##    <chr>      <chr>     <chr>      <dbl>            <dbl> <dbl> <dbl>   <dbl>   <dbl>   <dbl>   <dbl>   <dbl>
##  1 R_ai4tgG1~ 19/10/14~ 19/10/~        1                1     2    26       4       5       2       4       1
##  2 R_d5OiATV~ 20/10/14~ 20/10/~        1                1     2    66       2       4       2       4       4
##  3 R_aaBVZUe~ 20/10/14~ 20/10/~        1                1     1    41       1       5       2       3       2
##  4 R_6nxInLK~ 20/10/14~ 20/10/~        1                1     1    46       1       5       2       4       1
##  5 R_6SCYbhO~ 20/10/14~ 20/10/~        1                1     2    53       2       4       4       5       5
##  6 R_5pCxWA6~ 20/10/14~ 20/10/~        1                1     1    33       2       4       2       2       2
##  7 R_d1nji6V~ 20/10/14~ 20/10/~        1                1     2    41       1       5       4       4       4
##  8 R_9v6ZgUh~ 20/10/14~ 20/10/~        1                1     1    39       2       4       3       2       2
##  9 R_5Bg7VjB~ 20/10/14~ 20/10/~        1                1     2    38       1       2       4       2       5
## 10 R_9Sv17lQ~ 20/10/14~ 20/10/~        1                1     2    19       4       4       2       3       2
## # ... with 291 more rows, and 153 more variables: hexaco6 <dbl>, hexaco7 <dbl>, hexaco8 <dbl>, hexaco9 <dbl>,
## #   hexaco10 <dbl>, hexaco11 <dbl>, hexaco12 <dbl>, hexaco13 <dbl>, hexaco14 <dbl>, hexaco15 <dbl>,
## #   hexaco16 <dbl>, hexaco17 <dbl>, hexaco18 <dbl>, hexaco19 <dbl>, hexaco20 <dbl>, hexaco21 <dbl>,
## #   hexaco22 <dbl>, hexaco23 <dbl>, hexaco24 <dbl>, hexaco25 <dbl>, hexaco26 <dbl>, hexaco27 <dbl>,
## #   hexaco28 <dbl>, hexaco29 <dbl>, hexaco30 <dbl>, hexaco31 <dbl>, hexaco32 <dbl>, hexaco33 <dbl>,
## #   hexaco34 <dbl>, hexaco35 <dbl>, hexaco36 <dbl>, hexaco37 <dbl>, hexaco38 <dbl>, hexaco39 <dbl>,
## #   hexaco40 <dbl>, hexaco41 <dbl>, hexaco42 <dbl>, hexaco43 <dbl>, hexaco44 <dbl>, hexaco45 <dbl>,
## #   hexaco46 <dbl>, hexaco47 <dbl>, hexaco48 <dbl>, hexaco49 <dbl>, hexaco50 <dbl>, hexaco51 <dbl>,
## #   hexaco52 <dbl>, hexaco53 <dbl>, hexaco54 <dbl>, hexaco55 <dbl>, hexaco56 <dbl>, hexaco57 <dbl>,
…
---
background-image: url(images/05/dplyr-logo.png)
background-size: 6%
background-position: 90% 5%

# Creating new columns

Here is a version of the Fear of Crime data where participants' overall scores on the various personality measures have been calculated. 

```r
crime
```

```
## # A tibble: 301 x 15
##    Participant       sex     age victim_crime     H     E     X     A     C     O    SA    TA   OHQ   FoC  Foc2
##    <chr>             <chr> <dbl> <chr>        <dbl> <dbl> <dbl> <dbl> <dbl> <dbl> <dbl> <dbl> <dbl> <dbl> <dbl>
##  1 R_01TjXgC191rVSst male     55 yes            3.7   3     3.4   3.9   3.2   3.6  1.15  1.55  3.41   2.6     3
##  2 R_0dN5YeULcyms2qN fema~    20 no             2.5   3.1   2.5   2.4   2.2   3.1  2.05  2.95  2.38   2       3
##  3 R_0DPiPYWhncWS1TX male     57 yes            2.6   3.1   3.3   3.1   4.3   2.8  2     2.6   3      1.2     2
##  4 R_0f7bSsH6Up0yelz male     19 no             3.5   1.8   3.3   3.4   2.1   2.7  1.55  2.1   3.48   3.2     5
##  5 R_0rov2RoSkPEOvlv fema~    20 no             3.3   3.4   3.9   3.2   2.8   3.9  1.3   1.8   3.59   2.8     3
##  6 R_0wioqGERxElVTh3 fema~    20 no             2.6   2.6   3     2.6   2.9   3.4  2.55  1.5   3.76   2       4
##  7 R_0wRO8lNe0kusHNX male     34 yes            3.2   2.5   3.2   2.8   4     3.2  1.85  1.75  3.62   1.6     2
##  8 R_116nEdFsGDrKKzs fema~    19 no             2.9   4     3.9   4.2   3.7   1.9  1.1   2     3.55   2       5
##  9 R_11ZmBd5VEkW4525 fema~    19 yes            3.4   3.4   3.3   3.4   3.2   3.2  2.2   2.9   3.41   3.4     6
## 10 R_12i26Qzosmrr1KE male     20 no             2.4   2.1   1.8   2.2   3.4   2.9  2.15  2.4   2.59   1.4     2
## # ... with 291 more rows
```
…
# Creating new columns

```r
crime_sub <- select(crime,
                    age, SA, TA, sex)
mutate(crime_sub, age_group = ifelse(age > 40,
                                     "Over 40",
                                     "40 or under"))
```

```
## # A tibble: 301 x 5
##      age    SA    TA sex    age_group  
##    <dbl> <dbl> <dbl> <chr>  <chr>      
##  1    55  1.15  1.55 male   Over 40    
##  2    20  2.05  2.95 female 40 or under
##  3    57  2     2.6  male   Over 40    
##  4    19  1.55  2.1  male   40 or under
##  5    20  1.3   1.8  female 40 or under
##  6    20  2.55  1.5  female 40 or under
##  7    34  1.85  1.75 male   40 or under
##  8    19  1.1   2    female 40 or under
##  9    19  2.2   2.9  female 40 or under
## 10    20  2.15  2.4  male   40 or under
## # ... with 291 more rows
```
…
# Arranging rows

Having calculated each person's *state anxiety* score, perhaps we'd now like to check who has the lowest and highest scores (note: this can be a good way to check for extreme values!).

.pull-left[

```r
arrange(crime_sub, SA)
```

```
## # A tibble: 301 x 4
##      age    SA    TA sex   
##    <dbl> <dbl> <dbl> <chr> 
##  1    20  1     1.05 male  
##  2    53  1     1.55 female
##  3    49  1     1.65 male  
##  4    19  1.05  1.5  female
##  5    19  1.1   2    female
##  6    19  1.1   1.4  male  
##  7    29  1.1   1.5  female
##  8    19  1.1   1.3  female
##  9    20  1.1   1.8  female
## 10    21  1.1   2.1  male  
## # ... with 291 more rows
```
]
.pull-right[

```r
arrange(crime_sub, desc(SA))
```

```
## # A tibble: 301 x 4
##      age    SA    TA sex   
##    <dbl> <dbl> <dbl> <chr> 
##  1    19  3.85  3.85 female
##  2    20  3.6   3.6  female
##  3    20  3.6   3.55 female
##  4    18  3.4   4    female
##  5    19  3.4   3.35 female
##  6    20  3.35  2.8  female
##  7    20  3.3   3.5  male  
##  8    19  3.2   2.95 male  
##  9    19  3.1   3.1  female
## 10    20  3.1   3.15 female
## # ... with 291 more rows
```
…
# Grouping observations

**group_by()** is used to organise data frames into groups according to categorical variables. 

```r
grouped_crime <- group_by(crime, sex, victim_crime)
grouped_crime
```

```
## # A tibble: 301 x 15
## # Groups:   sex, victim_crime [4]
##    Participant       sex     age victim_crime     H     E     X     A     C     O    SA    TA   OHQ   FoC  Foc2
##    <chr>             <chr> <dbl> <chr>        <dbl> <dbl> <dbl> <dbl> <dbl> <dbl> <dbl> <dbl> <dbl> <dbl> <dbl>
##  1 R_01TjXgC191rVSst male     55 yes            3.7   3     3.4   3.9   3.2   3.6  1.15  1.55  3.41   2.6     3
##  2 R_0dN5YeULcyms2qN fema~    20 no             2.5   3.1   2.5   2.4   2.2   3.1  2.05  2.95  2.38   2       3
##  3 R_0DPiPYWhncWS1TX male     57 yes            2.6   3.1   3.3   3.1   4.3   2.8  2     2.6   3      1.2     2
##  4 R_0f7bSsH6Up0yelz male     19 no             3.5   1.8   3.3   3.4   2.1   2.7  1.55  2.1   3.48   3.2     5
##  5 R_0rov2RoSkPEOvlv fema~    20 no             3.3   3.4   3.9   3.2   2.8   3.9  1.3   1.8   3.59   2.8     3
##  6 R_0wioqGERxElVTh3 fema~    20 no             2.6   2.6   3     2.6   2.9   3.4  2.55  1.5   3.76   2       4
##  7 R_0wRO8lNe0kusHNX male     34 yes            3.2   2.5   3.2   2.8   4     3.2  1.85  1.75  3.62   1.6     2
##  8 R_116nEdFsGDrKKzs fema~    19 no             2.9   4     3.9   4.2   3.7   1.9  1.1   2     3.55   2       5
##  9 R_11ZmBd5VEkW4525 fema~    19 yes            3.4   3.4   3.3   3.4   3.2   3.2  2.2   2.9   3.41   3.4     6
## 10 R_12i26Qzosmrr1KE male     20 no             2.4   2.1   1.8   2.2   3.4   2.9  2.15  2.4   2.59   1.4     2
## # ... with 291 more rows
```
…
# Filtering rows

We can use the **filter()** function to select only the rows we're interested in, using *logical conditions* and *relational operators*.

```r
filter(prison_pop,
       View == "a Establishment*Sex*Age Group")
```

```
## # A tibble: 2,042 x 6
##    View                       Date    Establishment Sex    `Age / Custody / Nationality / Offence G~ Population
##    <chr>                      <chr>   <chr>         <chr>  <chr>                                          <dbl>
##  1 a Establishment*Sex*Age G~ 2015-06 Altcourse     Male   Adults (21+)                                     922
##  2 a Establishment*Sex*Age G~ 2015-06 Altcourse     Male   Juveniles and Young Adults (15-20)               169
##  3 a Establishment*Sex*Age G~ 2015-06 Ashfield      Male   Adults (21+)                                     389
##  4 a Establishment*Sex*Age G~ 2015-06 Askham Grange Female Adults (21+)                                      NA
##  5 a Establishment*Sex*Age G~ 2015-06 Askham Grange Female Juveniles and Young Adults (15-20)                NA
##  6 a Establishment*Sex*Age G~ 2015-06 Aylesbury     Male   Adults (21+)                                     113
##  7 a Establishment*Sex*Age G~ 2015-06 Aylesbury     Male   Juveniles and Young Adults (15-20)               268
##  8 a Establishment*Sex*Age G~ 2015-06 Bedford       Male   Adults (21+)                                     459
##  9 a Establishment*Sex*Age G~ 2015-06 Bedford       Male   Juveniles and Young Adults (15-20)                30
## 10 a Establishment*Sex*Age G~ 2015-06 Belmarsh      Male   Adults (21+)                                     794
## # ... with 2,032 more rows
```
…
# Filtering rows

We can have multiple *conditions* for selection with **filter()**.

Suppose we only wanted to include rows where Population is over 300 but under 600.

```r
filter(prison_pop,
       View == "a Establishment*Sex*Age Group",
       Population > 300 & Population < 600)
```

```
## # A tibble: 487 x 6
##    View                       Date    Establishment Sex    `Age / Custody / Nationality / Offence G~ Population
##    <chr>                      <chr>   <chr>         <chr>  <chr>                                          <dbl>
##  1 a Establishment*Sex*Age G~ 2015-06 Ashfield      Male   Adults (21+)                                     389
##  2 a Establishment*Sex*Age G~ 2015-06 Bedford       Male   Adults (21+)                                     459
##  3 a Establishment*Sex*Age G~ 2015-06 Brinsford     Male   Juveniles and Young Adults (15-20)               349
##  4 a Establishment*Sex*Age G~ 2015-06 Bristol       Male   Adults (21+)                                     553
##  5 a Establishment*Sex*Age G~ 2015-06 Bronzefield   Female Adults (21+)                                     459
##  6 a Establishment*Sex*Age G~ 2015-06 Buckley Hall  Male   Adults (21+)                                     440
##  7 a Establishment*Sex*Age G~ 2015-06 Coldingley    Male   Adults (21+)                                     515
##  8 a Establishment*Sex*Age G~ 2015-06 Deerbolt      Male   Juveniles and Young Adults (15-20)               311
##  9 a Establishment*Sex*Age G~ 2015-06 Eastwood Park Female Adults (21+)                                     331
## 10 a Establishment*Sex*Age G~ 2015-06 Erlestoke     Male   Adults (21+)                                     514
## # ... with 477 more rows
```
…
